---------------------------------------------------------------
MONSTA Realm startup at 2021-01-01 20:03:16.601
---------------------------------------------------------------
20:03:16.601  ------------------------------------------------------
20:03:16.601  2021-01-01 20:03:16
20:03:16.601  Diablo II running under Windows .Net (Version 6.002)
20:03:16.601  Vendor:  Intel
20:03:16.601  Version: Pentium III (no brand) (Type 0, Family 6, Model C, Stepping 3, Brand 0)
20:03:16.609  Speed: Approx. 3506 MHz
20:03:16.609  Total Physical Memory: 2048.00MB
20:03:16.609  Application Path: E:\Spiele\Diablo II\ProjectD2
20:03:16.618  Local IP: 25.72.93.76
20:03:16.618  Computer name: MONSTA
20:03:16.618  ------------------------------------------------------
20:03:16.618  
20:03:16.619  imagehlp.dll loaded for better stack crawls.
20:03:17.012  ........DirectSound progress: 0 buffers available is less than min needed 16 buffers for 3d sound
20:03:17.048  ........DirectSound progress: 0 buffers available is less than min needed 16 buffers for 3d sound
---------------------------------------------------------------
MONSTA Realm startup at 2021-01-01 20:06:25.018
---------------------------------------------------------------
20:06:25.018  ------------------------------------------------------
20:06:25.018  2021-01-01 20:06:25
20:06:25.018  Diablo II running under Windows .Net (Version 6.002)
20:06:25.018  Vendor:  Intel
20:06:25.018  Version: Pentium III (no brand) (Type 0, Family 6, Model C, Stepping 3, Brand 0)
20:06:25.030  Speed: Approx. 3506 MHz
20:06:25.030  Total Physical Memory: 2048.00MB
20:06:25.030  Application Path: E:\Spiele\Diablo II\ProjectD2
20:06:25.038  Local IP: 25.72.93.76
20:06:25.038  Computer name: MONSTA
20:06:25.038  ------------------------------------------------------
20:06:25.038  
20:06:25.039  imagehlp.dll loaded for better stack crawls.
20:06:25.481  ........DirectSound progress: 0 buffers available is less than min needed 16 buffers for 3d sound
20:06:25.503  ........DirectSound progress: 0 buffers available is less than min needed 16 buffers for 3d sound
