---------------------------------------------------------------
MONSTA Realm startup at 2021-01-04 18:48:46.191
---------------------------------------------------------------
18:48:46.191  ------------------------------------------------------
18:48:46.191  2021-01-04 18:48:46
18:48:46.191  Diablo II running under Windows .Net (Version 6.002)
18:48:46.191  Vendor:  Intel
18:48:46.191  Version: Pentium III (no brand) (Type 0, Family 6, Model C, Stepping 3, Brand 0)
18:48:46.193  Speed: Approx. 3505 MHz
18:48:46.193  Total Physical Memory: 2048.00MB
18:48:46.193  Application Path: E:\Spiele\Diablo II\ProjectD2
18:48:46.209  Local IP: 192.168.0.6
18:48:46.209  Computer name: MONSTA
18:48:46.209  ------------------------------------------------------
18:48:46.209  
18:48:46.210  imagehlp.dll loaded for better stack crawls.
18:48:48.437  ........DirectSound progress: 0 buffers available is less than min needed 16 buffers for 3d sound
18:48:48.462  ........DirectSound progress: 0 buffers available is less than min needed 16 buffers for 3d sound
---------------------------------------------------------------
MONSTA Realm startup at 2021-01-04 18:50:33.131
---------------------------------------------------------------
18:50:33.131  ------------------------------------------------------
18:50:33.131  2021-01-04 18:50:33
18:50:33.131  Diablo II running under Windows .Net (Version 6.002)
18:50:33.131  Vendor:  Intel
18:50:33.131  Version: Pentium III (no brand) (Type 0, Family 6, Model C, Stepping 3, Brand 0)
18:50:33.147  Speed: Approx. 3506 MHz
18:50:33.147  Total Physical Memory: 2048.00MB
18:50:33.147  Application Path: E:\Spiele\Diablo II\ProjectD2
18:50:33.159  Local IP: 192.168.0.6
18:50:33.159  Computer name: MONSTA
18:50:33.159  ------------------------------------------------------
18:50:33.159  
18:50:33.160  imagehlp.dll loaded for better stack crawls.
18:50:33.693  ........DirectSound progress: 0 buffers available is less than min needed 16 buffers for 3d sound
18:50:33.718  ........DirectSound progress: 0 buffers available is less than min needed 16 buffers for 3d sound
---------------------------------------------------------------
MONSTA Realm startup at 2021-01-04 18:52:57.926
---------------------------------------------------------------
18:52:57.926  ------------------------------------------------------
18:52:57.926  2021-01-04 18:52:57
18:52:57.926  Diablo II running under Windows .Net (Version 6.002)
18:52:57.926  Vendor:  Intel
18:52:57.926  Version: Pentium III (no brand) (Type 0, Family 6, Model C, Stepping 3, Brand 0)
18:52:57.928  Speed: Approx. 3506 MHz
18:52:57.928  Total Physical Memory: 2048.00MB
18:52:57.928  Application Path: E:\Spiele\Diablo II\ProjectD2
18:52:57.939  Local IP: 192.168.0.6
18:52:57.939  Computer name: MONSTA
18:52:57.939  ------------------------------------------------------
18:52:57.939  
18:52:57.940  imagehlp.dll loaded for better stack crawls.
18:52:58.538  ........DirectSound progress: 0 buffers available is less than min needed 16 buffers for 3d sound
18:52:58.556  ........DirectSound progress: 0 buffers available is less than min needed 16 buffers for 3d sound
---------------------------------------------------------------
MONSTA Realm startup at 2021-01-04 19:00:27.014
---------------------------------------------------------------
19:00:27.014  ------------------------------------------------------
19:00:27.014  2021-01-04 19:00:27
19:00:27.014  Diablo II running under Windows .Net (Version 6.002)
19:00:27.014  Vendor:  Intel
19:00:27.014  Version: Pentium III (no brand) (Type 0, Family 6, Model C, Stepping 3, Brand 0)
19:00:27.021  Speed: Approx. 3506 MHz
19:00:27.021  Total Physical Memory: 2048.00MB
19:00:27.021  Application Path: E:\Spiele\Diablo II\ProjectD2
19:00:27.030  Local IP: 192.168.0.6
19:00:27.030  Computer name: MONSTA
19:00:27.030  ------------------------------------------------------
19:00:27.030  
19:00:27.031  imagehlp.dll loaded for better stack crawls.
19:00:28.308  ........DirectSound progress: 0 buffers available is less than min needed 16 buffers for 3d sound
19:00:29.087  ........DirectSound progress: 0 buffers available is less than min needed 16 buffers for 3d sound
19:00:51.543  ***** DirectDraw error: SetDisplayMode failed! - DDERR_INVALIDMODE (0x88760078)
19:00:51.543  Opening DirectDraw window for cutscenes failed!
---------------------------------------------------------------
MONSTA Realm startup at 2021-01-04 19:01:56.756
---------------------------------------------------------------
19:01:56.756  ------------------------------------------------------
19:01:56.756  2021-01-04 19:01:56
19:01:56.756  Diablo II running under Windows .Net (Version 6.002)
19:01:56.756  Vendor:  Intel
19:01:56.756  Version: Pentium III (no brand) (Type 0, Family 6, Model C, Stepping 3, Brand 0)
19:01:56.772  Speed: Approx. 3506 MHz
19:01:56.772  Total Physical Memory: 2048.00MB
19:01:56.772  Application Path: E:\Spiele\Diablo II\ProjectD2
19:01:56.780  Local IP: 192.168.0.6
19:01:56.780  Computer name: MONSTA
19:01:56.780  ------------------------------------------------------
19:01:56.780  
19:01:56.781  imagehlp.dll loaded for better stack crawls.
19:01:57.206  ........DirectSound progress: 0 buffers available is less than min needed 16 buffers for 3d sound
19:01:57.219  ........DirectSound progress: 0 buffers available is less than min needed 16 buffers for 3d sound
---------------------------------------------------------------
MONSTA Realm startup at 2021-01-04 19:22:41.146
---------------------------------------------------------------
19:22:41.146  ------------------------------------------------------
19:22:41.146  2021-01-04 19:22:41
19:22:41.146  Diablo II running under Windows .Net (Version 6.002)
19:22:41.146  Vendor:  Intel
19:22:41.146  Version: Pentium III (no brand) (Type 0, Family 6, Model C, Stepping 3, Brand 0)
19:22:41.147  Speed: Approx. 3505 MHz
19:22:41.147  Total Physical Memory: 2048.00MB
19:22:41.147  Application Path: E:\Spiele\Diablo II\ProjectD2
19:22:41.155  Local IP: 192.168.0.6
19:22:41.155  Computer name: MONSTA
19:22:41.155  ------------------------------------------------------
19:22:41.155  
19:22:41.156  imagehlp.dll loaded for better stack crawls.
19:22:41.448  ........DirectSound progress: 0 buffers available is less than min needed 16 buffers for 3d sound
19:22:41.464  ........DirectSound progress: 0 buffers available is less than min needed 16 buffers for 3d sound
---------------------------------------------------------------
MONSTA Realm startup at 2021-01-04 19:33:14.536
---------------------------------------------------------------
19:33:14.536  ------------------------------------------------------
19:33:14.536  2021-01-04 19:33:14
19:33:14.536  Diablo II running under Windows .Net (Version 6.002)
19:33:14.536  Vendor:  Intel
19:33:14.536  Version: Pentium III (no brand) (Type 0, Family 6, Model C, Stepping 3, Brand 0)
19:33:14.537  Speed: Approx. 3504 MHz
19:33:14.537  Total Physical Memory: 2048.00MB
19:33:14.537  Application Path: E:\Spiele\Diablo II\ProjectD2
19:33:14.548  Local IP: 25.72.93.76
19:33:14.548  Computer name: MONSTA
19:33:14.548  ------------------------------------------------------
19:33:14.548  
19:33:14.549  imagehlp.dll loaded for better stack crawls.
19:33:15.152  ........DirectSound progress: 0 buffers available is less than min needed 16 buffers for 3d sound
19:33:15.172  ........DirectSound progress: 0 buffers available is less than min needed 16 buffers for 3d sound
